[
  {
    "Act": {
      "Move": "Left"
    }
  },
  {
    "Act": {
      "Move": "Left"
    }
  },
  {
    "Act": "DownStair"
  },
  {
    "Act": {
      "Move": "LeftUp"
    }
  },
  {
    "Act": "DownStair"
  },
  {
    "Act": {
      "Move": "LeftUp"
    }
  },
  {
    "Act": {
      "Move": "LeftUp"
    }
  },
  {
    "Act": {
      "Move": "LeftUp"
    }
  },
  {
    "Act": {
      "Move": "LeftUp"
    }
  },
  {
    "Act": {
      "Move": "LeftUp"
    }
  },
  {
    "Act": {
      "Move": "Left"
    }
  },
  {
    "Act": "DownStair"
  },
  {
    "Act": {
      "Move": "Left"
    }
  },
  {
    "Act": {
      "Move": "Left"
    }
  },
  {
    "Act": {
      "Move": "Left"
    }
  },
  {
    "Act": {
      "Move": "Up"
    }
  },
  {
    "Act": {
      "Move": "Left"
    }
  },
  {
    "Act": {
      "Move": "Left"
    }
  },
  {
    "Act": {
      "Move": "Up"
    }
  },
  {
    "Act": {
      "Move": "LeftDown"
    }
  },
  {
    "Act": {
      "Move": "Down"
    }
  },
  {
    "Act": {
      "Move": "Down"
    }
  },
  {
    "Act": {
      "Move": "LeftDown"
    }
  },
  {
    "Act": "NoOp"
  },
  {
    "Act": {
      "Move": "RightUp"
    }
  },
  {
    "Act": {
      "Move": "Right"
    }
  },
  {
    "Act": {
      "Move": "Down"
    }
  },
  {
    "Act": {
      "Move": "Left"
    }
  },
  {
    "Act": {
      "Move": "Left"
    }
  },
  {
    "Act": "DownStair"
  },
  {
    "Act": "DownStair"
  },
  {
    "Act": {
      "Move": "Down"
    }
  },
  {
    "Act": {
      "Move": "Down"
    }
  },
  {
    "Act": {
      "Move": "RightUp"
    }
  },
  {
    "Act": {
      "Move": "Down"
    }
  },
  {
    "Act": "Search"
  },
  {
    "Act": {
      "Move": "Down"
    }
  },
  {
    "Act": {
      "Move": "Left"
    }
  },
  {
    "Act": {
      "Move": "Right"
    }
  },
  {
    "Act": {
      "Move": "Left"
    }
  },
  {
    "Act": {
      "Move": "Down"
    }
  },
  {
    "Act": "Search"
  },
  {
    "Act": {
      "Move": "RightUp"
    }
  },
  {
    "Act": {
      "Move": "RightDown"
    }
  },
  {
    "Act": {
      "Move": "Down"
    }
  },
  {
    "Act": {
      "Move": "Down"
    }
  },
  {
    "Act": {
      "Move": "Right"
    }
  },
  {
    "Act": {
      "Move": "Down"
    }
  },
  {
    "Act": {
      "Move": "LeftUp"
    }
  },
  {
    "Act": {
      "Move": "RightUp"
    }
  },
  {
    "Act": {
      "Move": "Up"
    }
  },
  {
    "Act": {
      "Move": "Down"
    }
  },
  {
    "Act": {
      "Move": "LeftDown"
    }
  },
  {
    "Act": {
      "Move": "RightUp"
    }
  },
  {
    "Act": {
      "Move": "RightUp"
    }
  },
  {
    "Act": {
      "Move": "Down"
    }
  },
  {
    "Act": {
      "Move": "Left"
    }
  },
  {
    "Act": {
      "Move": "Left"
    }
  },
  {
    "Act": {
      "Move": "RightUp"
    }
  },
  {
    "Act": {
      "Move": "Left"
    }
  },
  {
    "Act": {
      "Move": "Right"
    }
  },
  {
    "Act": {
      "Move": "Down"
    }
  },
  {
    "Act": {
      "Move": "Up"
    }
  },
  {
    "Act": {
      "Move": "Down"
    }
  },
  {
    "Act": "Search"
  },
  {
    "Act": {
      "Move": "LeftDown"
    }
  },
  {
    "Act": "Search"
  },
  {
    "Act": "Search"
  },
  {
    "Act": "Search"
  },
  {
    "Act": {
      "Move": "Down"
    }
  },
  {
    "Act": {
      "Move": "Right"
    }
  },
  {
    "Act": {
      "Move": "LeftDown"
    }
  },
  {
    "Act": {
      "Move": "Left"
    }
  },
  {
    "Act": {
      "Move": "RightUp"
    }
  },
  {
    "Act": {
      "Move": "Left"
    }
  },
  {
    "Act": "NoOp"
  },
  {
    "Act": {
      "Move": "Up"
    }
  },
  {
    "Act": {
      "Move": "LeftDown"
    }
  },
  {
    "Act": {
      "Move": "Down"
    }
  },
  {
    "Act": {
      "Move": "LeftDown"
    }
  },
  {
    "Act": "DownStair"
  },
  {
    "Act": {
      "Move": "Down"
    }
  },
  {
    "Act": {
      "Move": "LeftDown"
    }
  },
  {
    "Act": {
      "Move": "RightUp"
    }
  },
  {
    "Act": {
      "Move": "RightUp"
    }
  },
  {
    "Act": {
      "Move": "Left"
    }
  },
  {
    "Act": {
      "Move": "RightUp"
    }
  },
  {
    "Act": {
      "Move": "Left"
    }
  },
  {
    "Act": {
      "Move": "RightDown"
    }
  },
  {
    "Act": {
      "Move": "LeftDown"
    }
  },
  {
    "Act": {
      "Move": "LeftDown"
    }
  },
  {
    "Act": {
      "Move": "Right"
    }
  },
  {
    "Act": {
      "Move": "Right"
    }
  },
  {
    "Act": {
      "Move": "Left"
    }
  },
  {
    "Act": {
      "Move": "LeftDown"
    }
  },
  {
    "Act": {
      "Move": "Down"
    }
  },
  {
    "Act": {
      "Move": "Left"
    }
  },
  {
    "Act": {
      "Move": "Left"
    }
  },
  {
    "Act": {
      "Move": "LeftDown"
    }
  },
  {
    "Act": {
      "Move": "Down"
    }
  },
  {
    "Act": {
      "Move": "Left"
    }
  },
  {
    "Act": {
      "Move": "RightUp"
    }
  },
  {
    "Act": {
      "Move": "Right"
    }
  },
  {
    "Act": {
      "Move": "Left"
    }
  },
  {
    "Act": {
      "Move": "Down"
    }
  },
  {
    "Act": {
      "Move": "Up"
    }
  },
  {
    "Act": "Search"
  },
  {
    "Act": {
      "Move": "Right"
    }
  },
  {
    "Act": {
      "Move": "Left"
    }
  },
  {
    "Act": {
      "Move": "RightUp"
    }
  },
  {
    "Act": {
      "Move": "Down"
    }
  },
  {
    "Act": {
      "Move": "Right"
    }
  },
  {
    "Act": {
      "Move": "RightDown"
    }
  },
  {
    "Act": {
      "Move": "RightUp"
    }
  },
  {
    "Act": {
      "Move": "Down"
    }
  },
  {
    "Act": "Search"
  },
  {
    "Act": "Search"
  },
  {
    "Act": {
      "Move": "RightDown"
    }
  },
  {
    "Act": {
      "Move": "Left"
    }
  },
  {
    "Act": {
      "Move": "Right"
    }
  },
  {
    "Act": {
      "Move": "Down"
    }
  },
  {
    "Act": {
      "Move": "Right"
    }
  },
  {
    "Act": {
      "Move": "RightUp"
    }
  },
  {
    "Act": "DownStair"
  },
  {
    "Act": {
      "Move": "RightUp"
    }
  },
  {
    "Act": "Search"
  },
  {
    "Act": {
      "Move": "Up"
    }
  },
  {
    "Act": {
      "Move": "Right"
    }
  },
  {
    "Act": {
      "Move": "Left"
    }
  },
  {
    "Act": "Search"
  },
  {
    "Act": {
      "Move": "Down"
    }
  },
  {
    "Act": {
      "Move": "Left"
    }
  },
  {
    "Act": {
      "Move": "Left"
    }
  },
  {
    "Act": {
      "Move": "Down"
    }
  },
  {
    "Act": {
      "Move": "Up"
    }
  },
  {
    "Act": {
      "Move": "LeftDown"
    }
  },
  {
    "Act": {
      "Move": "LeftDown"
    }
  },
  {
    "Act": "Search"
  },
  {
    "Act": {
      "Move": "Right"
    }
  },
  {
    "Act": {
      "Move": "Right"
    }
  },
  {
    "Act": {
      "Move": "Down"
    }
  },
  {
    "Act": {
      "Move": "Left"
    }
  },
  {
    "Act": {
      "Move": "Right"
    }
  },
  {
    "Act": {
      "Move": "Right"
    }
  },
  {
    "Act": {
      "Move": "Up"
    }
  },
  {
    "Act": "DownStair"
  },
  {
    "Act": {
      "Move": "LeftUp"
    }
  },
  {
    "Act": {
      "Move": "Down"
    }
  },
  {
    "Act": "Search"
  },
  {
    "Act": "NoOp"
  },
  {
    "Act": "Search"
  },
  {
    "Act": {
      "Move": "Up"
    }
  },
  {
    "Act": {
      "Move": "Up"
    }
  },
  {
    "Act": {
      "Move": "RightDown"
    }
  },
  {
    "Act": {
      "Move": "Left"
    }
  },
  {
    "Act": {
      "Move": "Down"
    }
  },
  {
    "Act": {
      "Move": "Right"
    }
  },
  {
    "Act": {
      "Move": "RightUp"
    }
  },
  {
    "Act": {
      "Move": "Left"
    }
  },
  {
    "Act": {
      "Move": "RightUp"
    }
  },
  {
    "Act": {
      "Move": "Left"
    }
  },
  {
    "Act": {
      "Move": "Left"
    }
  },
  {
    "Act": "NoOp"
  },
  {
    "Act": {
      "Move": "Left"
    }
  },
  {
    "Act": {
      "Move": "LeftDown"
    }
  },
  {
    "Act": {
      "Move": "RightDown"
    }
  },
  {
    "Act": {
      "Move": "RightUp"
    }
  },
  {
    "Act": {
      "Move": "RightUp"
    }
  },
  {
    "Act": {
      "Move": "Left"
    }
  },
  {
    "Act": {
      "Move": "LeftDown"
    }
  },
  {
    "Act": {
      "Move": "RightUp"
    }
  },
  {
    "Act": "NoOp"
  },
  {
    "Act": {
      "Move": "Down"
    }
  },
  {
    "Act": {
      "Move": "Down"
    }
  },
  {
    "Act": {
      "Move": "Up"
    }
  },
  {
    "Act": {
      "Move": "LeftDown"
    }
  },
  {
    "Act": "DownStair"
  },
  {
    "Act": {
      "Move": "Right"
    }
  },
  {
    "Act": {
      "Move": "Down"
    }
  },
  {
    "Act": {
      "Move": "Left"
    }
  },
  {
    "Act": {
      "Move": "Right"
    }
  },
  {
    "Act": {
      "Move": "Down"
    }
  },
  {
    "Act": {
      "Move": "Right"
    }
  },
  {
    "Act": {
      "Move": "LeftDown"
    }
  },
  {
    "Act": "DownStair"
  },
  {
    "Act": {
      "Move": "Up"
    }
  },
  {
    "Act": {
      "Move": "RightDown"
    }
  },
  {
    "Act": {
      "Move": "RightUp"
    }
  },
  {
    "Act": {
      "Move": "Left"
    }
  },
  {
    "Act": "DownStair"
  },
  {
    "Act": "Search"
  },
  {
    "Act": {
      "Move": "Right"
    }
  },
  {
    "Act": {
      "Move": "Left"
    }
  },
  {
    "Act": "Search"
  },
  {
    "Act": {
      "Move": "Down"
    }
  },
  {
    "Act": "DownStair"
  },
  {
    "Act": {
      "Move": "RightUp"
    }
  },
  {
    "Act": "NoOp"
  },
  {
    "Act": "Search"
  },
  {
    "Act": "NoOp"
  },
  {
    "Act": {
      "Move": "LeftDown"
    }
  },
  {
    "Act": "DownStair"
  },
  {
    "Act": "DownStair"
  },
  {
    "Act": {
      "Move": "Left"
    }
  },
  {
    "Act": "NoOp"
  },
  {
    "Act": {
      "Move": "Left"
    }
  },
  {
    "Act": "Search"
  },
  {
    "Act": {
      "Move": "Left"
    }
  },
  {
    "Act": {
      "Move": "Down"
    }
  },
  {
    "Act": {
      "Move": "RightUp"
    }
  },
  {
    "Act": {
      "Move": "LeftUp"
    }
  },
  {
    "Act": "NoOp"
  },
  {
    "Act": "DownStair"
  },
  {
    "Act": {
      "Move": "Left"
    }
  },
  {
    "Act": "Search"
  },
  {
    "Act": {
      "Move": "Down"
    }
  },
  {
    "Act": {
      "Move": "Up"
    }
  },
  {
    "Act": {
      "Move": "Left"
    }
  },
  {
    "Act": {
      "Move": "Down"
    }
  },
  {
    "Act": {
      "Move": "Left"
    }
  },
  {
    "Act": {
      "Move": "Down"
    }
  },
  {
    "Act": {
      "Move": "Left"
    }
  },
  {
    "Act": "NoOp"
  },
  {
    "Act": {
      "Move": "Right"
    }
  },
  {
    "Act": {
      "Move": "Right"
    }
  },
  {
    "Act": {
      "Move": "Left"
    }
  },
  {
    "Act": {
      "Move": "Down"
    }
  },
  {
    "Act": {
      "Move": "Right"
    }
  },
  {
    "Act": "NoOp"
  },
  {
    "Act": {
      "Move": "RightUp"
    }
  },
  {
    "Act": {
      "Move": "Right"
    }
  },
  {
    "Act": {
      "Move": "Down"
    }
  },
  {
    "Act": {
      "Move": "Down"
    }
  },
  {
    "Act": "Search"
  },
  {
    "Act": {
      "Move": "Down"
    }
  },
  {
    "Act": "NoOp"
  },
  {
    "Act": {
      "Move": "LeftDown"
    }
  },
  {
    "Act": "NoOp"
  },
  {
    "Act": "NoOp"
  },
  {
    "Act": "DownStair"
  },
  {
    "Act": {
      "Move": "LeftDown"
    }
  },
  {
    "Act": "NoOp"
  },
  {
    "Act": {
      "Move": "Down"
    }
  },
  {
    "Act": "DownStair"
  },
  {
    "Act": {
      "Move": "Right"
    }
  },
  {
    "Act": "DownStair"
  },
  {
    "Act": "NoOp"
  },
  {
    "Act": {
      "Move": "LeftUp"
    }
  },
  {
    "Act": "DownStair"
  },
  {
    "Act": {
      "Move": "Down"
    }
  },
  {
    "Act": {
      "Move": "Right"
    }
  },
  {
    "Act": {
      "Move": "RightDown"
    }
  },
  {
    "Act": {
      "Move": "Right"
    }
  },
  {
    "Act": {
      "Move": "Right"
    }
  },
  {
    "Act": {
      "Move": "RightDown"
    }
  },
  {
    "Act": "DownStair"
  },
  {
    "Act": "DownStair"
  },
  {
    "Act": "DownStair"
  },
  {
    "Act": {
      "Move": "RightDown"
    }
  },
  {
    "Act": "Search"
  },
  {
    "Act": {
      "Move": "Down"
    }
  },
  {
    "Act": {
      "Move": "Left"
    }
  },
  {
    "Act": {
      "Move": "Down"
    }
  },
  {
    "Act": {
      "Move": "Left"
    }
  },
  {
    "Act": "DownStair"
  },
  {
    "Act": {
      "Move": "LeftDown"
    }
  },
  {
    "Act": {
      "Move": "LeftUp"
    }
  },
  {
    "Act": "DownStair"
  },
  {
    "Act": {
      "Move": "Left"
    }
  },
  {
    "Act": {
      "Move": "Left"
    }
  },
  {
    "Act": {
      "Move": "RightUp"
    }
  },
  {
    "Act": "Search"
  },
  {
    "Act": "DownStair"
  },
  {
    "Act": {
      "Move": "RightUp"
    }
  },
  {
    "Act": {
      "Move": "Left"
    }
  },
  {
    "Act": {
      "Move": "LeftDown"
    }
  },
  {
    "Act": {
      "Move": "Right"
    }
  },
  {
    "Act": {
      "Move": "Right"
    }
  },
  {
    "Act": {
      "Move": "Left"
    }
  },
  {
    "Act": "DownStair"
  },
  {
    "Act": {
      "Move": "Left"
    }
  },
  {
    "Act": {
      "Move": "Right"
    }
  },
  {
    "Act": {
      "Move": "Left"
    }
  },
  {
    "Act": {
      "Move": "Left"
    }
  },
  {
    "Act": "Search"
  },
  {
    "Act": {
      "Move": "Left"
    }
  },
  {
    "Act": {
      "Move": "Left"
    }
  },
  {
    "Act": "DownStair"
  },
  {
    "Act": "DownStair"
  },
  {
    "Act": {
      "Move": "Down"
    }
  },
  {
    "Act": "Search"
  },
  {
    "Act": "NoOp"
  },
  {
    "Act": {
      "Move": "RightUp"
    }
  },
  {
    "Act": {
      "Move": "Left"
    }
  },
  {
    "Act": "DownStair"
  },
  {
    "Act": {
      "Move": "Down"
    }
  },
  {
    "Act": "Search"
  },
  {
    "Act": "DownStair"
  },
  {
    "Act": {
      "Move": "Right"
    }
  },
  {
    "Act": "DownStair"
  },
  {
    "Act": {
      "Move": "RightDown"
    }
  },
  {
    "Act": {
      "Move": "RightUp"
    }
  },
  {
    "Act": "DownStair"
  },
  {
    "Act": {
      "Move": "Left"
    }
  },
  {
    "Act": {
      "Move": "Left"
    }
  },
  {
    "Act": {
      "Move": "Up"
    }
  },
  {
    "Act": {
      "Move": "Left"
    }
  },
  {
    "Act": {
      "Move": "LeftDown"
    }
  },
  {
    "Act": {
      "Move": "Up"
    }
  },
  {
    "Act": {
      "Move": "Left"
    }
  },
  {
    "Act": {
      "Move": "RightUp"
    }
  },
  {
    "Act": {
      "Move": "RightUp"
    }
  },
  {
    "Act": {
      "Move": "Right"
    }
  },
  {
    "Act": {
      "Move": "Left"
    }
  },
  {
    "Act": {
      "Move": "Left"
    }
  },
  {
    "Act": "DownStair"
  },
  {
    "Act": {
      "Move": "Right"
    }
  },
  {
    "Act": "DownStair"
  },
  {
    "Act": {
      "Move": "Left"
    }
  },
  {
    "Act": "DownStair"
  },
  {
    "Act": "NoOp"
  },
  {
    "Act": {
      "Move": "RightDown"
    }
  },
  {
    "Act": {
      "Move": "RightUp"
    }
  },
  {
    "Act": "Search"
  },
  {
    "Act": {
      "Move": "RightUp"
    }
  },
  {
    "Act": {
      "Move": "Up"
    }
  },
  {
    "Act": {
      "Move": "Left"
    }
  },
  {
    "Act": {
      "Move": "RightDown"
    }
  },
  {
    "Act": {
      "Move": "Left"
    }
  },
  {
    "Act": {
      "Move": "RightDown"
    }
  },
  {
    "Act": "DownStair"
  },
  {
    "Act": {
      "Move": "Down"
    }
  },
  {
    "Act": {
      "Move": "RightDown"
    }
  },
  {
    "Act": {
      "Move": "RightDown"
    }
  },
  {
    "Act": {
      "Move": "Left"
    }
  },
  {
    "Act": {
      "Move": "Up"
    }
  },
  {
    "Act": {
      "Move": "Right"
    }
  },
  {
    "Act": {
      "Move": "Left"
    }
  },
  {
    "Act": {
      "Move": "Right"
    }
  },
  {
    "Act": {
      "Move": "RightUp"
    }
  },
  {
    "Act": {
      "Move": "Left"
    }
  },
  {
    "Act": {
      "Move": "RightUp"
    }
  },
  {
    "Act": {
      "Move": "Up"
    }
  },
  {
    "Act": {
      "Move": "Down"
    }
  },
  {
    "Act": "DownStair"
  },
  {
    "Act": {
      "Move": "Left"
    }
  },
  {
    "Act": "DownStair"
  },
  {
    "Act": {
      "Move": "RightDown"
    }
  },
  {
    "Act": "Search"
  },
  {
    "Act": {
      "Move": "RightDown"
    }
  },
  {
    "Act": {
      "Move": "Left"
    }
  },
  {
    "Act": {
      "Move": "Right"
    }
  },
  {
    "Act": {
      "Move": "Left"
    }
  },
  {
    "Act": {
      "Move": "Left"
    }
  },
  {
    "Act": {
      "Move": "Left"
    }
  },
  {
    "Act": {
      "Move": "Right"
    }
  },
  {
    "Act": "DownStair"
  },
  {
    "Act": {
      "Move": "RightDown"
    }
  },
  {
    "Act": {
      "Move": "Right"
    }
  },
  {
    "Act": {
      "Move": "Down"
    }
  },
  {
    "Act": {
      "Move": "Left"
    }
  },
  {
    "Act": {
      "Move": "RightUp"
    }
  },
  {
    "Act": {
      "Move": "RightUp"
    }
  },
  {
    "Act": {
      "Move": "Up"
    }
  },
  {
    "Act": {
      "Move": "Left"
    }
  },
  {
    "Act": {
      "Move": "Left"
    }
  },
  {
    "Act": {
      "Move": "Left"
    }
  },
  {
    "Act": {
      "Move": "Left"
    }
  },
  {
    "Act": {
      "Move": "Left"
    }
  },
  {
    "Act": "DownStair"
  },
  {
    "Act": {
      "Move": "RightDown"
    }
  },
  {
    "Act": {
      "Move": "Left"
    }
  },
  {
    "Act": {
      "Move": "LeftDown"
    }
  },
  {
    "Act": "DownStair"
  },
  {
    "Act": {
      "Move": "Down"
    }
  },
  {
    "Act": {
      "Move": "RightUp"
    }
  },
  {
    "Act": {
      "Move": "Left"
    }
  },
  {
    "Act": {
      "Move": "Up"
    }
  },
  {
    "Act": {
      "Move": "Up"
    }
  },
  {
    "Act": {
      "Move": "Left"
    }
  },
  {
    "Act": "DownStair"
  },
  {
    "Act": {
      "Move": "Left"
    }
  },
  {
    "Act": {
      "Move": "Left"
    }
  },
  {
    "Act": "NoOp"
  },
  {
    "Act": {
      "Move": "Left"
    }
  },
  {
    "Act": {
      "Move": "Right"
    }
  },
  {
    "Act": {
      "Move": "Left"
    }
  },
  {
    "Act": {
      "Move": "Right"
    }
  },
  {
    "Act": "Search"
  },
  {
    "Act": {
      "Move": "RightUp"
    }
  },
  {
    "Act": {
      "Move": "Left"
    }
  },
  {
    "Act": {
      "Move": "Up"
    }
  },
  {
    "Act": {
      "Move": "Left"
    }
  },
  {
    "Act": {
      "Move": "Down"
    }
  },
  {
    "Act": {
      "Move": "Right"
    }
  },
  {
    "Act": {
      "Move": "Left"
    }
  },
  {
    "Act": {
      "Move": "Left"
    }
  },
  {
    "Act": {
      "Move": "RightDown"
    }
  },
  {
    "Act": "DownStair"
  },
  {
    "Act": {
      "Move": "Left"
    }
  },
  {
    "Act": {
      "Move": "Right"
    }
  },
  {
    "Act": {
      "Move": "Left"
    }
  },
  {
    "Act": {
      "Move": "Down"
    }
  },
  {
    "Act": {
      "Move": "Left"
    }
  },
  {
    "Act": "DownStair"
  },
  {
    "Act": {
      "Move": "RightDown"
    }
  },
  {
    "Act": {
      "Move": "Left"
    }
  },
  {
    "Act": {
      "Move": "Left"
    }
  },
  {
    "Act": {
      "Move": "Right"
    }
  },
  {
    "Act": "DownStair"
  },
  {
    "Act": {
      "Move": "Left"
    }
  },
  {
    "Act": {
      "Move": "Right"
    }
  },
  {
    "Act": {
      "Move": "Left"
    }
  },
  {
    "Act": "DownStair"
  },
  {
    "Act": {
      "Move": "Left"
    }
  },
  {
    "Act": {
      "Move": "RightDown"
    }
  },
  {
    "Act": {
      "Move": "Right"
    }
  },
  {
    "Act": {
      "Move": "Left"
    }
  },
  {
    "Act": "DownStair"
  },
  {
    "Act": {
      "Move": "Left"
    }
  },
  {
    "Act": {
      "Move": "RightUp"
    }
  },
  {
    "Act": {
      "Move": "Left"
    }
  },
  {
    "Act": {
      "Move": "Left"
    }
  },
  {
    "Act": "Search"
  },
  {
    "Act": {
      "Move": "Left"
    }
  },
  {
    "Act": {
      "Move": "RightUp"
    }
  },
  {
    "Act": {
      "Move": "Right"
    }
  },
  {
    "Act": {
      "Move": "Left"
    }
  },
  {
    "Act": "Search"
  },
  {
    "Act": {
      "Move": "Down"
    }
  },
  {
    "Act": {
      "Move": "Left"
    }
  },
  {
    "Act": "DownStair"
  },
  {
    "Act": {
      "Move": "Left"
    }
  },
  {
    "Act": {
      "Move": "Left"
    }
  },
  {
    "Act": {
      "Move": "Up"
    }
  },
  {
    "Act": {
      "Move": "Left"
    }
  },
  {
    "Act": {
      "Move": "Up"
    }
  },
  {
    "Act": {
      "Move": "Right"
    }
  },
  {
    "Act": {
      "Move": "Up"
    }
  },
  {
    "Act": {
      "Move": "Left"
    }
  },
  {
    "Act": {
      "Move": "Right"
    }
  },
  {
    "Act": "DownStair"
  },
  {
    "Act": {
      "Move": "RightUp"
    }
  },
  {
    "Act": {
      "Move": "Left"
    }
  },
  {
    "Act": {
      "Move": "Left"
    }
  },
  {
    "Act": {
      "Move": "Up"
    }
  },
  {
    "Act": {
      "Move": "Left"
    }
  },
  {
    "Act": {
      "Move": "RightUp"
    }
  },
  {
    "Act": {
      "Move": "Left"
    }
  },
  {
    "Act": {
      "Move": "Up"
    }
  },
  {
    "Act": {
      "Move": "Left"
    }
  },
  {
    "Act": {
      "Move": "Left"
    }
  },
  {
    "Act": {
      "Move": "RightUp"
    }
  },
  {
    "Act": {
      "Move": "Left"
    }
  },
  {
    "Act": "DownStair"
  },
  {
    "Act": "DownStair"
  },
  {
    "Act": {
      "Move": "RightDown"
    }
  },
  {
    "Act": {
      "Move": "Left"
    }
  },
  {
    "Act": {
      "Move": "Left"
    }
  },
  {
    "Act": {
      "Move": "Left"
    }
  },
  {
    "Act": {
      "Move": "Left"
    }
  },
  {
    "Act": {
      "Move": "Up"
    }
  },
  {
    "Act": {
      "Move": "Left"
    }
  },
  {
    "Act": {
      "Move": "Left"
    }
  },
  {
    "Act": {
      "Move": "Left"
    }
  },
  {
    "Act": {
      "Move": "Right"
    }
  },
  {
    "Act": {
      "Move": "Left"
    }
  },
  {
    "Act": {
      "Move": "Left"
    }
  },
  {
    "Act": {
      "Move": "RightDown"
    }
  },
  {
    "Act": "DownStair"
  },
  {
    "Act": {
      "Move": "Left"
    }
  },
  {
    "Act": {
      "Move": "Right"
    }
  },
  {
    "Act": {
      "Move": "Left"
    }
  },
  {
    "Act": "DownStair"
  },
  {
    "Act": {
      "Move": "Left"
    }
  },
  {
    "Act": {
      "Move": "Left"
    }
  },
  {
    "Act": "DownStair"
  },
  {
    "Act": {
      "Move": "Left"
    }
  },
  {
    "Act": {
      "Move": "Left"
    }
  },
  {
    "Act": {
      "Move": "RightDown"
    }
  },
  {
    "Act": "Search"
  },
  {
    "Act": {
      "Move": "Left"
    }
  },
  {
    "Act": "NoOp"
  },
  {
    "Act": {
      "Move": "Right"
    }
  },
  {
    "Act": {
      "Move": "Left"
    }
  },
  {
    "Act": "DownStair"
  },
  {
    "Act": {
      "Move": "RightDown"
    }
  },
  {
    "Act": {
      "Move": "RightDown"
    }
  },
  {
    "Act": "Search"
  },
  {
    "Act": {
      "Move": "RightDown"
    }
  },
  {
    "Act": {
      "Move": "LeftDown"
    }
  },
  {
    "Act": {
      "Move": "RightUp"
    }
  },
  {
    "Act": {
      "Move": "Left"
    }
  },
  {
    "Act": {
      "Move": "RightDown"
    }
  },
  {
    "Act": "DownStair"
  },
  {
    "Act": {
      "Move": "Left"
    }
  },
  {
    "Act": {
      "Move": "Right"
    }
  },
  {
    "Act": {
      "Move": "Left"
    }
  },
  {
    "Act": {
      "Move": "Left"
    }
  },
  {
    "Act": {
      "Move": "Left"
    }
  }
]